NFL_Combine_Data
…
## # A tibble: 23 x 2
##    POS    name
##    <chr> <dbl>
##  1 C       299
##  2 CB      191
##  3 DB      201
##  4 DE      267
##  5 DL      253
##  6 DT      300
##  7 FB      240
##  8 FS      203
##  9 G       312
## 10 ILB     241
## #  with 13 more rows
…
